{
  "type": "service_account",
  "project_id": "jadiarsi-chat",
  "private_key_id": "f0f1bb3fbdf767ecb104b9a8c14388df67a6cf2c",
  "private_key": "-----BEGIN PRIVATE KEY-----\nMIIEvgIBADANBgkqhkiG9w0BAQEFAASCBKgwggSkAgEAAoIBAQDifid/MtCTCD2s\ngS4AeLlO3awbg28ZzmaiT1ZOIWH9guVbAji+dWNPUxZqYlL6exW+szm2OghsvKmk\nrKVFBYlzP9lTZqqNh6+vn+95H/hzo13u9BQ2RN4fCscN6PVnecZmsYHF9WslqV6r\nXJ+VPb7rNjbndj7b5fAvqAicRISRV+wmd+8DAQZwsT2qC3HwMp8H/io2VcxsXbBT\ntGLIGB7BoyUH55t7CSU+J2JtXGt+p4YphkPwSBBG8pvc5KCdq/0c0FyBwVxwQGxU\n8pEQJxth23GXZKkQYr6lmmJwuKIQOlB7FHdZjdvdsbT3h3wPzLIQD36qodC/89NO\nrUiKrA4rAgMBAAECggEAEAoBAAf4L0FZJLstJ8lkzgnyoywmlPxB1mKp6PSCPPKl\nDVHV9N7ZPofSwYve9m/69Ts57gakDBc8KDY1qfKfbjLqT/aoQ0eFkHlR+xDhhkbe\nYwqT19f+ptIbkIebwU0lWKZfW0Zq5QrecmInxujNeViogLGl9+qLnMRYf8B2Zthh\n/QdLVFqu7/fJVI5y9a/8x5WQmkISYSvueG71lOmDhIVcFwz6noGB1EhTJ19Yrn5u\nl2xdP79WS6FwcdFCfQhXvk3ERwM058LIBdtyJovrYV5qfOln+pnzFOEn0Ev6k/Io\nbo4ZU6RdFaOKxhIaTJGOUGFgVxmPPjmIJv+LWdQ7uQKBgQDxh/k5VV7/+vMpipTZ\n19TzRWU/tbKojo8HVeG8Io8rFwmQCCOXnxprJqCHbglOOAcz5/9M0B/C4TBsOZK3\nXSsozNoWWiGF/s6U7RbHTrHxKQ/VUIXycIVz598Moz6Ql7G1q/MkH5vSm0KwAKV2\nvvWpC2ZBgAtZ588Wk1Nt0sBZhQKBgQDwD472WIT+pXi5siWzSCNJC+L8fp1CBpvg\nhJyJo6d8rujCQ2OAmwBqOyboQKmMRIYdh83dXAeI3MEiRmQKxgBDNFqGGRcnh+mN\nPBcj8Y3FQx8howyOzFPnkmrtlFeLb1YcrD1MSlhfwEaCQVs+QnN6Gc39wrnbvqv4\nVMTm1Un/7wKBgQDYktFBvLBDnjUd4bqZH3Q+ctJX70f05meP701LUj3IKI8VjIbF\ntQ+OVwOIjH1hmtGylGuS5+gi6aNu160cKDnECvPfKRB4Q0PfvDw5mPHryaL95odF\nHeo8RQT3IwW9x5e8zCNoF8O0dC22/c1gjdhfrO4S+4qyIi7KEm6zwk9htQKBgQCI\nqJK98k5jmFdNfvivQtWzc6zYCEwFljWObm+eeyeRdxDR5gLy50opL1tKw+TBERE4\nJmMvLICtjN31YRT6fRURLPCLfiUMP/bYi+iwcYY/UaKbR3KSqAbrwRJWBSiBG/Rt\nhi+vCnOcrpx08je7DaEnVSFK4FtlmPnU+IzOy4TAyQKBgAFDk7TkeVBBGVyMTw0O\nY04/K8U+kV9ZO8EtLGrr7yGPI8007//UgXA2fBHVHVw+IoVP+/4OaLdGVQFLH/0V\nAMz4M/txA6R249TuOFzMjebXMX/wPxjBliNHe/slDQ1Yii9tRsbk3+dtp+0kDuK/\nk0t5z+dRhuMhc3PLT2dKZBp2\n-----END PRIVATE KEY-----\n",
  "client_email": "firebase-adminsdk-prinz@jadiarsi-chat.iam.gserviceaccount.com",
  "client_id": "116850171652520466428",
  "auth_uri": "https://accounts.google.com/o/oauth2/auth",
  "token_uri": "https://oauth2.googleapis.com/token",
  "auth_provider_x509_cert_url": "https://www.googleapis.com/oauth2/v1/certs",
  "client_x509_cert_url": "https://www.googleapis.com/robot/v1/metadata/x509/firebase-adminsdk-prinz%40jadiarsi-chat.iam.gserviceaccount.com"
}
